name: Products
description: 'Manage inventory products.'
endpoints:
  -
    custom: []
    httpMethods:
      - GET
    uri: api/v1/products
    metadata:
      custom: []
      groupName: Products
      groupDescription: 'Manage inventory products.'
      subgroup: ''
      subgroupDescription: ''
      title: 'List all products (paginated).'
      description: ''
      authenticated: true
      deprecated: false
    headers:
      Authorization: 'Bearer {YOUR_AUTH_TOKEN}'
      Content-Type: application/json
      Accept: application/json
    urlParameters: []
    cleanUrlParameters: []
    queryParameters:
      search:
        custom: []
        name: search
        description: 'Search by name or code.'
        required: false
        example: laptop
        type: string
        enumValues: []
        exampleWasSpecified: false
        nullable: false
        deprecated: false
      category_id:
        custom: []
        name: category_id
        description: 'Filter by category ID.'
        required: false
        example: 1
        type: integer
        enumValues: []
        exampleWasSpecified: false
        nullable: false
        deprecated: false
      page:
        custom: []
        name: page
        description: 'Page number.'
        required: false
        example: 1
        type: integer
        enumValues: []
        exampleWasSpecified: false
        nullable: false
        deprecated: false
    cleanQueryParameters:
      search: laptop
      category_id: 1
      page: 1
    bodyParameters: []
    cleanBodyParameters: []
    fileParameters: []
    responses:
      -
        custom: []
        status: 200
        content: '{"success":true,"message":"Data retrieved successfully","data":[{"id":1,"code":"ITM-ABC-1234","name":"Laptop Dell Latitude","category_id":1,"stock":10,"stock_available":8,"condition":"good"}],"meta":{"current_page":1,"last_page":3,"per_page":15,"total":42}}'
        headers: []
        description: ''
      -
        custom: []
        status: 401
        content: '{"message":"Unauthenticated."}'
        headers: []
        description: ''
    responseFields: []
    auth:
      - headers
      - Authorization
      - 'Bearer 6g43cv8PD1aE5beadkZfhV6'
    controller: null
    method: null
    route: null
  -
    custom: []
    httpMethods:
      - POST
    uri: api/v1/products
    metadata:
      custom: []
      groupName: Products
      groupDescription: 'Manage inventory products.'
      subgroup: ''
      subgroupDescription: ''
      title: 'Create a new product.'
      description: 'Requires the Admin or Staff role.'
      authenticated: true
      deprecated: false
    headers:
      Authorization: 'Bearer {YOUR_AUTH_TOKEN}'
      Content-Type: application/json
      Accept: application/json
    urlParameters: []
    cleanUrlParameters: []
    queryParameters: []
    cleanQueryParameters: []
    bodyParameters:
      code:
        custom: []
        name: code
        description: 'Unique product code.'
        required: true
        example: ITM-ABC-1234
        type: string
        enumValues: []
        exampleWasSpecified: false
        nullable: false
        deprecated: false
      name:
        custom: []
        name: name
        description: 'Product name.'
        required: true
        example: 'Laptop Dell Latitude'
        type: string
        enumValues: []
        exampleWasSpecified: false
        nullable: false
        deprecated: false
      category_id:
        custom: []
        name: category_id
        description: 'Existing category ID.'
        required: true
        example: 1
        type: integer
        enumValues: []
        exampleWasSpecified: false
        nullable: false
        deprecated: false
      stock:
        custom: []
        name: stock
        description: 'Initial stock count.'
        required: true
        example: 10
        type: integer
        enumValues: []
        exampleWasSpecified: false
        nullable: false
        deprecated: false
      location:
        custom: []
        name: location
        description: 'Storage location.'
        required: false
        example: 'Gedung A, Lantai 2'
        type: string
        enumValues: []
        exampleWasSpecified: false
        nullable: false
        deprecated: false
      condition:
        custom: []
        name: condition
        description: 'Product condition.'
        required: true
        example: good
        type: string
        enumValues:
          - good
          - lightly_damaged
          - heavily_damaged
        exampleWasSpecified: false
        nullable: false
        deprecated: false
    cleanBodyParameters:
      code: ITM-ABC-1234
      name: 'Laptop Dell Latitude'
      category_id: 1
      stock: 10
      location: 'Gedung A, Lantai 2'
      condition: good
    fileParameters: []
    responses:
      -
        custom: []
        status: 201
        content: '{"success":true,"message":"Product created successfully","data":{"id":1,"code":"ITM-ABC-1234","name":"Laptop Dell Latitude"}}'
        headers: []
        description: ''
      -
        custom: []
        status: 403
        content: '{"success":false,"message":"This action is unauthorized."}'
        headers: []
        description: ''
      -
        custom: []
        status: 422
        content: '{"success":false,"message":"The code has already been taken."}'
        headers: []
        description: ''
    responseFields: []
    auth:
      - headers
      - Authorization
      - 'Bearer 6g43cv8PD1aE5beadkZfhV6'
    controller: null
    method: null
    route: null
  -
    custom: []
    httpMethods:
      - GET
    uri: 'api/v1/products/{id}'
    metadata:
      custom: []
      groupName: Products
      groupDescription: 'Manage inventory products.'
      subgroup: ''
      subgroupDescription: ''
      title: 'Get product detail.'
      description: ''
      authenticated: true
      deprecated: false
    headers:
      Authorization: 'Bearer {YOUR_AUTH_TOKEN}'
      Content-Type: application/json
      Accept: application/json
    urlParameters:
      id:
        custom: []
        name: id
        description: 'The product ID.'
        required: true
        example: 1
        type: integer
        enumValues: []
        exampleWasSpecified: false
        nullable: false
        deprecated: false
    cleanUrlParameters:
      id: 1
    queryParameters: []
    cleanQueryParameters: []
    bodyParameters: []
    cleanBodyParameters: []
    fileParameters: []
    responses:
      -
        custom: []
        status: 200
        content: '{"success":true,"message":"Data retrieved successfully","data":{"id":1,"code":"ITM-ABC-1234","name":"Laptop Dell Latitude","category":{"id":1,"name":"Elektronik"}}}'
        headers: []
        description: ''
      -
        custom: []
        status: 404
        content: '{"message":"No query results for model [App\\Models\\Product]."}'
        headers: []
        description: ''
    responseFields: []
    auth:
      - headers
      - Authorization
      - 'Bearer 6g43cv8PD1aE5beadkZfhV6'
    controller: null
    method: null
    route: null
  -
    custom: []
    httpMethods:
      - PUT
      - PATCH
    uri: 'api/v1/products/{id}'
    metadata:
      custom: []
      groupName: Products
      groupDescription: 'Manage inventory products.'
      subgroup: ''
      subgroupDescription: ''
      title: 'Update a product.'
      description: 'Requires the Admin or Staff role. All fields are optional (partial update).'
      authenticated: true
      deprecated: false
    headers:
      Authorization: 'Bearer {YOUR_AUTH_TOKEN}'
      Content-Type: application/json
      Accept: application/json
    urlParameters:
      id:
        custom: []
        name: id
        description: 'The product ID.'
        required: true
        example: 1
        type: integer
        enumValues: []
        exampleWasSpecified: false
        nullable: false
        deprecated: false
    cleanUrlParameters:
      id: 1
    queryParameters: []
    cleanQueryParameters: []
    bodyParameters:
      code:
        custom: []
        name: code
        description: 'Unique product code.'
        required: false
        example: ITM-ABC-1234
        type: string
        enumValues: []
        exampleWasSpecified: false
        nullable: false
        deprecated: false
      name:
        custom: []
        name: name
        description: 'Product name.'
        required: false
        example: 'Laptop Dell Latitude'
        type: string
        enumValues: []
        exampleWasSpecified: false
        nullable: false
        deprecated: false
      category_id:
        custom: []
        name: category_id
        description: 'Existing category ID.'
        required: false
        example: 1
        type: integer
        enumValues: []
        exampleWasSpecified: false
        nullable: false
        deprecated: false
      stock:
        custom: []
        name: stock
        description: 'Stock count.'
        required: false
        example: 12
        type: integer
        enumValues: []
        exampleWasSpecified: false
        nullable: false
        deprecated: false
      location:
        custom: []
        name: location
        description: 'Storage location.'
        required: false
        example: 'Gedung A, Lantai 2'
        type: string
        enumValues: []
        exampleWasSpecified: false
        nullable: false
        deprecated: false
      condition:
        custom: []
        name: condition
        description: 'Product condition.'
        required: false
        example: good
        type: string
        enumValues:
          - good
          - lightly_damaged
          - heavily_damaged
        exampleWasSpecified: false
        nullable: false
        deprecated: false
    cleanBodyParameters:
      code: ITM-ABC-1234
      name: 'Laptop Dell Latitude'
      category_id: 1
      stock: 12
      location: 'Gedung A, Lantai 2'
      condition: good
    fileParameters: []
    responses:
      -
        custom: []
        status: 200
        content: '{"success":true,"message":"Product updated successfully","data":{"id":1,"name":"Laptop Dell Latitude"}}'
        headers: []
        description: ''
      -
        custom: []
        status: 403
        content: '{"success":false,"message":"This action is unauthorized."}'
        headers: []
        description: ''
    responseFields: []
    auth:
      - headers
      - Authorization
      - 'Bearer 6g43cv8PD1aE5beadkZfhV6'
    controller: null
    method: null
    route: null
  -
    custom: []
    httpMethods:
      - DELETE
    uri: 'api/v1/products/{id}'
    metadata:
      custom: []
      groupName: Products
      groupDescription: 'Manage inventory products.'
      subgroup: ''
      subgroupDescription: ''
      title: 'Soft-delete a product.'
      description: 'Requires the Admin or Staff role.'
      authenticated: true
      deprecated: false
    headers:
      Authorization: 'Bearer {YOUR_AUTH_TOKEN}'
      Content-Type: application/json
      Accept: application/json
    urlParameters:
      id:
        custom: []
        name: id
        description: 'The product ID.'
        required: true
        example: 1
        type: integer
        enumValues: []
        exampleWasSpecified: false
        nullable: false
        deprecated: false
    cleanUrlParameters:
      id: 1
    queryParameters: []
    cleanQueryParameters: []
    bodyParameters: []
    cleanBodyParameters: []
    fileParameters: []
    responses:
      -
        custom: []
        status: 200
        content: '{"success":true,"message":"Product deleted successfully","data":null}'
        headers: []
        description: ''
      -
        custom: []
        status: 403
        content: '{"success":false,"message":"This action is unauthorized."}'
        headers: []
        description: ''
    responseFields: []
    auth:
      - headers
      - Authorization
      - 'Bearer 6g43cv8PD1aE5beadkZfhV6'
    controller: null
    method: null
    route: null
