## Autogenerated by Scribe. DO NOT MODIFY.

name: Borrowings
description: 'Borrowing transactions and returns.'
endpoints:
  -
    custom: []
    httpMethods:
      - GET
    uri: api/v1/borrowings
    metadata:
      custom: []
      groupName: Borrowings
      groupDescription: 'Borrowing transactions and returns.'
      subgroup: ''
      subgroupDescription: ''
      title: 'List all borrowing transactions.'
      description: ''
      authenticated: true
      deprecated: false
    headers:
      Authorization: 'Bearer {YOUR_AUTH_TOKEN}'
      Content-Type: application/json
      Accept: application/json
    urlParameters: []
    cleanUrlParameters: []
    queryParameters:
      status:
        custom: []
        name: status
        description: 'Filter by status.'
        required: false
        example: borrowed
        type: string
        enumValues:
          - borrowed
          - returned
          - overdue
        exampleWasSpecified: false
        nullable: false
        deprecated: false
      page:
        custom: []
        name: page
        description: 'Page number.'
        required: false
        example: 1
        type: integer
        enumValues: []
        exampleWasSpecified: false
        nullable: false
        deprecated: false
    cleanQueryParameters:
      status: borrowed
      page: 1
    bodyParameters: []
    cleanBodyParameters: []
    fileParameters: []
    responses:
      -
        custom: []
        status: 200
        content: '{"success":true,"message":"Data retrieved successfully","data":[{"id":1,"borrower_name":"Budi Santoso","status":"borrowed","borrow_date":"2026-07-02","due_date":"2026-07-09"}],"meta":{"current_page":1,"last_page":2,"per_page":15,"total":18}}'
        headers: []
        description: ''
      -
        custom: []
        status: 401
        content: '{"message":"Unauthenticated."}'
        headers: []
        description: ''
    responseFields: []
    auth:
      - headers
      - Authorization
      - 'Bearer 6g43cv8PD1aE5beadkZfhV6'
    controller: null
    method: null
    route: null
  -
    custom: []
    httpMethods:
      - POST
    uri: api/v1/borrowings
    metadata:
      custom: []
      groupName: Borrowings
      groupDescription: 'Borrowing transactions and returns.'
      subgroup: ''
      subgroupDescription: ''
      title: 'Create a new borrowing transaction (multi-item).'
      description: 'Requires the Admin or Staff role.'
      authenticated: true
      deprecated: false
    headers:
      Authorization: 'Bearer {YOUR_AUTH_TOKEN}'
      Content-Type: application/json
      Accept: application/json
    urlParameters: []
    cleanUrlParameters: []
    queryParameters: []
    cleanQueryParameters: []
    bodyParameters:
      borrower_name:
        custom: []
        name: borrower_name
        description: 'Name of the borrower.'
        required: true
        example: 'Budi Santoso'
        type: string
        enumValues: []
        exampleWasSpecified: false
        nullable: false
        deprecated: false
      borrow_date:
        custom: []
        name: borrow_date
        description: 'Date the items are borrowed.'
        required: true
        example: '2026-07-02'
        type: date
        enumValues: []
        exampleWasSpecified: false
        nullable: false
        deprecated: false
      due_date:
        custom: []
        name: due_date
        description: 'Date the items are due back.'
        required: true
        example: '2026-07-09'
        type: date
        enumValues: []
        exampleWasSpecified: false
        nullable: false
        deprecated: false
      notes:
        custom: []
        name: notes
        description: 'Optional notes.'
        required: false
        example: architecto
        type: string
        enumValues: []
        exampleWasSpecified: false
        nullable: false
        deprecated: false
      items:
        custom: []
        name: items
        description: 'Items to borrow.'
        required: true
        example:
          - []
        type: 'object[]'
        enumValues: []
        exampleWasSpecified: false
        nullable: false
        deprecated: false
      'items[].product_id':
        custom: []
        name: 'items[].product_id'
        description: 'Existing product ID.'
        required: true
        example: 3
        type: integer
        enumValues: []
        exampleWasSpecified: false
        nullable: false
        deprecated: false
      'items[].quantity':
        custom: []
        name: 'items[].quantity'
        description: 'Quantity to borrow.'
        required: true
        example: 2
        type: integer
        enumValues: []
        exampleWasSpecified: false
        nullable: false
        deprecated: false
    cleanBodyParameters:
      borrower_name: 'Budi Santoso'
      borrow_date: '2026-07-02'
      due_date: '2026-07-09'
      notes: architecto
      items:
        - product_id: 3
          quantity: 2
    fileParameters: []
    responses:
      -
        custom: []
        status: 201
        content: '{"success":true,"message":"Borrowing transaction created successfully","data":{"id":1,"borrower_name":"Budi Santoso","status":"borrowed"}}'
        headers: []
        description: ''
      -
        custom: []
        status: 403
        content: '{"success":false,"message":"This action is unauthorized."}'
        headers: []
        description: ''
      -
        custom: []
        status: 422
        content: '{"success":false,"message":"Insufficient stock for ''Laptop Dell Latitude''. Available: 1."}'
        headers: []
        description: ''
    responseFields: []
    auth:
      - headers
      - Authorization
      - 'Bearer 6g43cv8PD1aE5beadkZfhV6'
    controller: null
    method: null
    route: null
  -
    custom: []
    httpMethods:
      - GET
    uri: 'api/v1/borrowings/{id}'
    metadata:
      custom: []
      groupName: Borrowings
      groupDescription: 'Borrowing transactions and returns.'
      subgroup: ''
      subgroupDescription: ''
      title: 'Get borrowing transaction detail.'
      description: ''
      authenticated: true
      deprecated: false
    headers:
      Authorization: 'Bearer {YOUR_AUTH_TOKEN}'
      Content-Type: application/json
      Accept: application/json
    urlParameters:
      id:
        custom: []
        name: id
        description: 'The borrowing ID.'
        required: true
        example: 1
        type: integer
        enumValues: []
        exampleWasSpecified: false
        nullable: false
        deprecated: false
    cleanUrlParameters:
      id: 1
    queryParameters: []
    cleanQueryParameters: []
    bodyParameters: []
    cleanBodyParameters: []
    fileParameters: []
    responses:
      -
        custom: []
        status: 200
        content: '{"success":true,"message":"Data retrieved successfully","data":{"id":1,"borrower_name":"Budi Santoso","status":"borrowed","borrowing_details":[{"id":1,"product_id":3,"quantity":2,"item_status":"borrowed"}]}}'
        headers: []
        description: ''
      -
        custom: []
        status: 404
        content: '{"message":"No query results for model [App\\Models\\Borrowing]."}'
        headers: []
        description: ''
    responseFields: []
    auth:
      - headers
      - Authorization
      - 'Bearer 6g43cv8PD1aE5beadkZfhV6'
    controller: null
    method: null
    route: null
  -
    custom: []
    httpMethods:
      - PATCH
    uri: 'api/v1/borrowings/{borrowing_id}/return'
    metadata:
      custom: []
      groupName: Borrowings
      groupDescription: 'Borrowing transactions and returns.'
      subgroup: ''
      subgroupDescription: ''
      title: 'Process item return for a borrowing transaction.'
      description: 'Requires the Admin or Staff role.'
      authenticated: true
      deprecated: false
    headers:
      Authorization: 'Bearer {YOUR_AUTH_TOKEN}'
      Content-Type: application/json
      Accept: application/json
    urlParameters:
      borrowing_id:
        custom: []
        name: borrowing_id
        description: 'The ID of the borrowing.'
        required: true
        example: 16
        type: integer
        enumValues: []
        exampleWasSpecified: false
        nullable: false
        deprecated: false
      id:
        custom: []
        name: id
        description: 'The borrowing ID.'
        required: true
        example: 1
        type: integer
        enumValues: []
        exampleWasSpecified: false
        nullable: false
        deprecated: false
    cleanUrlParameters:
      borrowing_id: 16
      id: 1
    queryParameters: []
    cleanQueryParameters: []
    bodyParameters:
      items:
        custom: []
        name: items
        description: 'Items being returned.'
        required: true
        example:
          - []
        type: 'object[]'
        enumValues: []
        exampleWasSpecified: false
        nullable: false
        deprecated: false
      'items[].borrowing_detail_id':
        custom: []
        name: 'items[].borrowing_detail_id'
        description: 'Existing borrowing detail ID.'
        required: true
        example: 1
        type: integer
        enumValues: []
        exampleWasSpecified: false
        nullable: false
        deprecated: false
      'items[].condition_after':
        custom: []
        name: 'items[].condition_after'
        description: 'Item condition on return.'
        required: true
        example: good
        type: string
        enumValues:
          - good
          - lightly_damaged
          - heavily_damaged
        exampleWasSpecified: false
        nullable: false
        deprecated: false
    cleanBodyParameters:
      items:
        - borrowing_detail_id: 1
          condition_after: good
    fileParameters: []
    responses:
      -
        custom: []
        status: 200
        content: '{"success":true,"message":"Return processed successfully","data":{"id":1,"status":"returned"}}'
        headers: []
        description: ''
      -
        custom: []
        status: 403
        content: '{"success":false,"message":"This action is unauthorized."}'
        headers: []
        description: ''
    responseFields: []
    auth:
      - headers
      - Authorization
      - 'Bearer 6g43cv8PD1aE5beadkZfhV6'
    controller: null
    method: null
    route: null
